../Core/Src/am2320.c:46:22:am2320_Init	40	static
../Core/Src/am2320.c:53:9:am2320_ReadValue	32	static
../Core/Src/am2320.c:71:6:am2320_GetTemperatureAndHumidity	32	static
../Core/Src/am2320.c:86:6:am2320_ReadValue_v2	40	static
../Core/Src/am2320.c:117:6:am2320_GetTemperatureAndHumidity_v2	32	static
