../Core/Src/commandHandler.c:22:9:get_command	416	static
../Core/Src/commandHandler.c:221:6:execute_command_from_value	48	static
../Core/Src/commandHandler.c:229:6:execute_command_from_values	56	static
../Core/Src/commandHandler.c:238:6:write_state	16	static
../Core/Src/commandHandler.c:242:6:execute_command	16	static
../Core/Src/commandHandler.c:672:6:led_blink	40	static
