../Core/Src/encoders.c:10:6:encoders_init	8	static
../Core/Src/encoders.c:30:6:encoder_read	24	static
../Core/Src/encoders.c:52:6:encoder_reset	24	static
../Core/Src/encoders.c:60:9:encoder_get_MDR0	24	static
../Core/Src/encoders.c:77:6:check_MDR0_was_set	24	static
../Core/Src/encoders.c:87:6:isThereCommunication	16	static
../Core/Src/encoders.c:92:7:encoder_convert_to_unit	32	static
../Core/Src/encoders.c:110:7:encoder_convert_from_unit	32	static
../Core/Src/encoders.c:127:22:encoder_check	32	static
