../Core/Src/max31856.c:21:24:max31856_Init	56	static
../Core/Src/max31856.c:30:6:writeRegister8	24	static
../Core/Src/max31856.c:40:19:readRegisterN	32	static
../Core/Src/max31856.c:50:19:readRegister8	32	static
../Core/Src/max31856.c:56:19:readRegister16	32	static
../Core/Src/max31856.c:68:19:readRegister24	40	static
../Core/Src/max31856.c:82:6:setThermocoupleType	24	static
../Core/Src/max31856.c:90:6:setConversionMode	24	static
../Core/Src/max31856.c:104:6:setNoiseFilter	24	static
../Core/Src/max31856.c:115:6:setFaultMode	24	static
../Core/Src/max31856.c:126:6:max31856_readFault	16	static
../Core/Src/max31856.c:130:6:setCJ	24	static
../Core/Src/max31856.c:142:6:returnStringFromFaultRegister	24	static
../Core/Src/max31856.c:182:9:max31856_beginSetup	24	static
../Core/Src/max31856.c:212:20:max31856_GetThermocouple	24	static
../Core/Src/max31856.c:228:6:max31856_handleError	16	static
../Core/Src/max31856.c:231:7:readCJTemperature	24	static
