../Core/Src/sensorRead.c:10:9:sensors_init	136	static
../Core/Src/sensorRead.c:29:6:handle_thermocouple_spi_error	216	static
../Core/Src/sensorRead.c:65:6:handle_thermocouple_error	144	static
../Core/Src/sensorRead.c:76:6:handle_ads1115_i2c_error	152	static
../Core/Src/sensorRead.c:145:6:handle_am2320_i2c_error	160	static
../Core/Src/sensorRead.c:222:6:resetVariables	16	static
../Core/Src/sensorRead.c:228:9:sensors_read	48	static
