../Core/Src/stm32h7xx_it.c:79:6:NMI_Handler	4	static
../Core/Src/stm32h7xx_it.c:94:6:HardFault_Handler	4	static
../Core/Src/stm32h7xx_it.c:109:6:MemManage_Handler	4	static
../Core/Src/stm32h7xx_it.c:124:6:BusFault_Handler	4	static
../Core/Src/stm32h7xx_it.c:139:6:UsageFault_Handler	4	static
../Core/Src/stm32h7xx_it.c:154:6:DebugMon_Handler	4	static
../Core/Src/stm32h7xx_it.c:174:6:EXTI2_IRQHandler	8	static
../Core/Src/stm32h7xx_it.c:188:6:EXTI3_IRQHandler	8	static
../Core/Src/stm32h7xx_it.c:202:6:EXTI4_IRQHandler	8	static
../Core/Src/stm32h7xx_it.c:216:6:DMA1_Stream0_IRQHandler	8	static
../Core/Src/stm32h7xx_it.c:230:6:DMA1_Stream1_IRQHandler	8	static
../Core/Src/stm32h7xx_it.c:244:6:EXTI9_5_IRQHandler	8	static
../Core/Src/stm32h7xx_it.c:261:6:I2C1_EV_IRQHandler	8	static
../Core/Src/stm32h7xx_it.c:275:6:SPI1_IRQHandler	8	static
../Core/Src/stm32h7xx_it.c:289:6:SPI2_IRQHandler	8	static
../Core/Src/stm32h7xx_it.c:303:6:USART2_IRQHandler	8	static
../Core/Src/stm32h7xx_it.c:317:6:USART3_IRQHandler	8	static
../Core/Src/stm32h7xx_it.c:331:6:EXTI15_10_IRQHandler	8	static
../Core/Src/stm32h7xx_it.c:345:6:UART5_IRQHandler	8	static
../Core/Src/stm32h7xx_it.c:359:6:TIM6_DAC_IRQHandler	8	static
../Core/Src/stm32h7xx_it.c:373:6:TIM17_IRQHandler	8	static
